[
  {
    "id": 31,
    "iteration": 1,
    "primary_league": "nfl",
    "active": true
  },
  {
    "id": 32,
    "iteration": 1,
    "primary_league": "nfl",
    "active": true
  },
  {
    "id": 33,
    "iteration": 1,
    "primary_league": "nfl",
    "active": true
  },
  {
    "id": 34,
    "iteration": 1,
    "primary_league": "nfl",
    "active": true
  },
  {
    "id": 35,
    "iteration": 1,
    "primary_league": "nfl",
    "active": true
  },
  {
    "id": 36,
    "iteration": 1,
    "primary_league": "nfl",
    "active": true
  },
  {
    "id": 37,
    "iteration": 1,
    "primary_league": "nfl",
    "active": true
  },
  {
    "id": 38,
    "iteration": 1,
    "primary_league": "nfl",
    "active": true
  },
  {
    "id": 39,
    "iteration": 1,
    "primary_league": "nfl",
    "active": true
  },
  {
    "id": 40,
    "iteration": 1,
    "primary_league": "nfl",
    "active": true
  },
  {
    "id": 41,
    "iteration": 1,
    "primary_league": "nfl",
    "active": true
  },
  {
    "id": 42,
    "iteration": 1,
    "primary_league": "nfl",
    "active": true
  },
  {
    "id": 43,
    "iteration": 1,
    "primary_league": "nfl",
    "active": true
  },
  {
    "id": 44,
    "iteration": 1,
    "primary_league": "nfl",
    "active": true
  },
  {
    "id": 45,
    "iteration": 1,
    "primary_league": "nfl",
    "active": true
  },
  {
    "id": 46,
    "iteration": 1,
    "primary_league": "nfl",
    "active": true
  },
  {
    "id": 47,
    "iteration": 1,
    "primary_league": "nfl",
    "active": true
  },
  {
    "id": 48,
    "iteration": 1,
    "primary_league": "nfl",
    "active": true
  },
  {
    "id": 49,
    "iteration": 1,
    "primary_league": "nfl",
    "active": true
  },
  {
    "id": 50,
    "iteration": 1,
    "primary_league": "nfl",
    "active": true
  },
  {
    "id": 51,
    "iteration": 1,
    "primary_league": "nfl",
    "active": true
  },
  {
    "id": 52,
    "iteration": 1,
    "primary_league": "nfl",
    "active": true
  },
  {
    "id": 53,
    "iteration": 1,
    "primary_league": "nfl",
    "active": true
  },
  {
    "id": 54,
    "iteration": 1,
    "primary_league": "nfl",
    "active": true
  },
  {
    "id": 55,
    "iteration": 1,
    "primary_league": "nfl",
    "active": true
  },
  {
    "id": 56,
    "iteration": 1,
    "primary_league": "nfl",
    "active": true
  },
  {
    "id": 57,
    "iteration": 2,
    "primary_league": "nfl",
    "active": true
  },
  {
    "id": 58,
    "iteration": 1,
    "primary_league": "nfl",
    "active": true
  },
  {
    "id": 59,
    "iteration": 2,
    "primary_league": "nfl",
    "active": true
  },
  {
    "id": 60,
    "iteration": 1,
    "primary_league": "nfl",
    "active": true
  },
  {
    "id": 61,
    "iteration": 1,
    "primary_league": "nfl",
    "active": true
  },
  {
    "id": 62,
    "iteration": 1,
    "primary_league": "nfl",
    "active": true
  }
]
